Calculate journey specifications — calculate_journey_specifications • railvarr
…
jComponent ID

T_journeyTotal journey time across all components

    See also

    wrangle_timetable() match_ids() estimate_berth_lengths()
timetable_subset timetable_specification

    Examples

data(timetable_subset)
timetable_subset
#> # A tibble: 792 × 12
#>    train_header dt_origin           geo    event  wtt                
#>    <chr>        <dttm>              <chr>  <chr>  <dttm>             
#>  1 108H         2000-01-01 12:55:00 geo5   Arrive 2000-01-01 13:34:00
#>  2 108H         2000-01-01 12:55:00 geo5   Depart 2000-01-01 13:35:30
#>  3 108H         2000-01-01 12:55:00 geo6   Pass   2000-01-01 13:37:30
#>  4 108H         2000-01-01 12:55:00 geo110 Arrive 2000-01-01 13:39:00
#>  5 108H         2000-01-01 12:55:00 geo110 Depart 2000-01-01 13:39:30
#>  6 108H         2000-01-01 12:55:00 geo111 Arrive 2000-01-01 13:42:00
#>  7 108H         2000-01-01 12:55:00 geo111 Depart 2000-01-01 13:42:30
#>  8 108H         2000-01-01 12:55:00 geo112 Arrive 2000-01-01 13:44:30
#>  9 108H         2000-01-01 12:55:00 geo112 Depart 2000-01-01 13:45:00
#> 10 108H         2000-01-01 12:55:00 geo7   Arrive 2000-01-01 13:48:00
#> # ℹ 782 more rows
#> # ℹ 7 more variables: t <dttm>, delay <dbl>, allow <dbl>, allow_perf <dbl>,
#> #   allow_path <dbl>, allow_eng <dbl>, group <chr>
# spec_stations contains stations that completely encompass the Centrix track
spec_stations <- list("geo6", "geo110", "geo111", "geo112", "geo7")
calculate_journey_specifications(timetable_subset, spec_stations)
#> # A tibble: 281 × 10
#>    train_header dt_origin           wtt                 group        xi    xk   
#>    <chr>        <dttm>              <dttm>              <chr>        <chr> <chr>
#>  1 108H         2000-01-01 12:55:00 2000-01-01 13:39:00 stopping-all geo6  geo1…
#>  2 108H         2000-01-01 12:55:00 2000-01-01 13:39:30 stopping-all geo1… geo1…
#>  3 108H         2000-01-01 12:55:00 2000-01-01 13:42:00 stopping-all geo1… geo1…
#>  4 108H         2000-01-01 12:55:00 2000-01-01 13:42:30 stopping-all geo1… geo1…
#>  5 108H         2000-01-01 12:55:00 2000-01-01 13:44:30 stopping-all geo1… geo1…
#>  6 108H         2000-01-01 12:55:00 2000-01-01 13:45:00 stopping-all geo1… geo1…
#>  7 108H         2000-01-01 12:55:00 2000-01-01 13:48:00 stopping-all geo1… geo7 
#>  8 108H         2000-01-01 12:55:00 2000-01-01 13:49:00 stopping-all geo7  geo7 
#>  9 109H         2000-01-01 13:25:00 2000-01-01 14:09:00 stopping-all geo6  geo1…
#> 10 109H         2000-01-01 13:25:00 2000-01-01 14:09:30 stopping-all geo1… geo1…
#> # ℹ 271 more rows
#> # ℹ 4 more variables: duration <Duration>, type <chr>, j <int>, T_journey <dbl>
…
