Calculate train journey intervals — calculate_time_windows • railvarr
…
    See also

    preprocess_signal_events()

    Examples

data(aspect_events, track_events, asset_map)
time_windows <- calculate_time_windows(aspect_events,
                                       track_events,
                                       asset_map)
time_windows
#> # A tibble: 681 × 2
#>    window interval                                        
#>     <int> <Interval>                                      
#>  1      2 2000-01-01 13:07:11 UTC--2000-01-01 13:21:32 UTC
#>  2      3 2000-01-01 13:22:09 UTC--2000-01-01 13:26:10 UTC
#>  3      4 2000-01-01 13:27:43 UTC--2000-01-01 13:32:27 UTC
#>  4      7 2000-01-01 14:07:06 UTC--2000-01-01 14:20:32 UTC
#>  5      8 2000-01-01 14:26:30 UTC--2000-01-01 14:33:18 UTC
#>  6      9 2000-01-01 14:34:54 UTC--2000-01-01 14:54:57 UTC
#>  7     10 2000-01-01 15:06:54 UTC--2000-01-01 15:20:53 UTC
#>  8     11 2000-01-01 15:37:57 UTC--2000-01-01 15:50:21 UTC
#>  9     12 2000-01-01 16:07:15 UTC--2000-01-01 16:17:10 UTC
#> 10     13 2000-01-01 16:37:04 UTC--2000-01-01 16:49:11 UTC
#> # ℹ 671 more rows
…
