Estimate dwell times — estimate_dwell_times • railvarr
…
# Define braking and accelerating capacities
a_brake = 0.4
a_tract = 0.35

# Calculate dwell times
dwell_times <- estimate_dwell_times(berth_events_groups,
                                    berth_lengths,
                                    station_names,
                                    stopping_patterns,
                                    a_brake,
                                    a_tract)

# View dwell times
dwell_times
#> # A tibble: 1,581 × 22
#>    signal berth station train_id group      t_enters            T_travel v_entry
#>    <chr>  <chr> <chr>      <int> <chr>      <dttm>                 <dbl>   <dbl>
#>  1 S1     A     geo110         1 stopping-… 2000-01-01 13:07:11     127.    23.5
#>  2 S4     D     geo111         1 stopping-… 2000-01-01 13:10:41     118.    22.6
#>  3 S6     F     geo112         1 stopping-… 2000-01-01 13:13:18     137.    22.4
#>  4 S1     A     geo110         5 stopping-… 2000-01-01 14:07:06     128.    23.5
#>  5 S4     D     geo111         5 stopping-… 2000-01-01 14:10:40     111.    21.4
#>  6 S6     F     geo112         5 stopping-… 2000-01-01 14:13:14     141.    20.6
#>  7 S1     A     geo110        11 stopping-… 2000-01-01 14:40:42     125.    23.5
#>  8 S4     D     geo111        11 stopping-… 2000-01-01 14:44:20     111.    19.6
#>  9 S6     F     geo112        11 stopping-… 2000-01-01 14:46:53     127.    20.6
#> 10 S1     A     geo110        13 stopping-… 2000-01-01 15:06:54     110.    23.5
#> # ℹ 1,571 more rows
#> # ℹ 14 more variables: a_brake <dbl>, L1 <dbl>, v_exit <dbl>, a_tract <dbl>,
#> #   L2 <dbl>, T_brake <dbl>, S_brake <dbl>, T_const_one <dbl>,
#> #   T_move_one <dbl>, T_tract <dbl>, S_tract <dbl>, T_const_two <dbl>,
#> #   T_move_two <dbl>, T_dwell <dbl>
…
