Find calling patterns from timetable — find_calling_patterns • railvarr
…
The timetable with calling patterns added.

    See also

    filter_relevant_services() wrangle_timetable()

    Examples

data(timetable, stations, stopping_stations)
calling_patterns <- timetable |>
                      filter_relevant_direction(stations) |>
                      find_calling_patterns(stopping_stations)
calling_patterns[,c("train_header", "dt_origin", "geo", "event", "group")]
#> # A tibble: 792 × 5
#>    train_header dt_origin           geo    event  group       
#>    <chr>        <dttm>              <chr>  <chr>  <chr>       
#>  1 108H         2000-01-01 12:55:00 geo5   Arrive stopping-all
#>  2 108H         2000-01-01 12:55:00 geo5   Depart stopping-all
#>  3 108H         2000-01-01 12:55:00 geo6   Pass   stopping-all
#>  4 108H         2000-01-01 12:55:00 geo110 Arrive stopping-all
#>  5 108H         2000-01-01 12:55:00 geo110 Depart stopping-all
#>  6 108H         2000-01-01 12:55:00 geo111 Arrive stopping-all
#>  7 108H         2000-01-01 12:55:00 geo111 Depart stopping-all
#>  8 108H         2000-01-01 12:55:00 geo112 Arrive stopping-all
#>  9 108H         2000-01-01 12:55:00 geo112 Depart stopping-all
#> 10 108H         2000-01-01 12:55:00 geo7   Arrive stopping-all
#> # ℹ 782 more rows
…
