Match Centrix and Timetable IDs — match_ids • railvarr
…
timetable_groups <- dplyr::filter(timetable_subset,
                                  event %in% c("Arrive", "Depart", "Pass"))

matched_ids <- match_ids(berth_events_groups, timetable_groups, match_mapping)
matched_ids
#> # A tibble: 42 × 3
#>    train_id train_header dt_origin          
#>       <int> <chr>        <dttm>             
#>  1        5 109H         2000-01-01 13:25:00
#>  2        6 46H          2000-01-01 13:36:00
#>  3        9 185H         2000-01-01 13:52:00
#>  4       10 1H           2000-01-01 14:00:00
#>  5       12 16H          2000-01-01 14:15:00
#>  6       13 111H         2000-01-01 14:25:00
#>  7       14 47H          2000-01-01 14:39:00
#>  8       15 186H         2000-01-01 14:52:00
#>  9       15 2H           2000-01-01 15:00:00
#> 10       16 112H         2000-01-01 14:55:00
#> # ℹ 32 more rows

match_mapping <- dplyr::tribble(
  ~group, ~berth, ~geo, ~lb, ~ub,
  "fast", "A", "geo6", -240, 60,
  # move start of window for stopping-all trains to 60 seconds before `t_enters`
  "stopping-all", "A", "geo110", -60, 0,
  "stopping-all", "D", "geo111", -60, 0,
  "stopping-all", "F", "geo112", -60, 0
)
wider_window <- match_ids(berth_events_groups, timetable_groups, match_mapping)
# More matches are found with the wider window
wider_window
#> # A tibble: 45 × 3
#>    train_id train_header dt_origin          
#>       <int> <chr>        <dttm>             
#>  1        5 109H         2000-01-01 13:25:00
#>  2        6 46H          2000-01-01 13:36:00
#>  3        9 185H         2000-01-01 13:52:00
#>  4       10 1H           2000-01-01 14:00:00
#>  5       11 110H         2000-01-01 13:55:00
#>  6       12 16H          2000-01-01 14:15:00
#>  7       13 111H         2000-01-01 14:25:00
#>  8       14 47H          2000-01-01 14:39:00
#>  9       15 186H         2000-01-01 14:52:00
#> 10       15 2H           2000-01-01 15:00:00
#> # ℹ 35 more rows
…
