Preprocess raw Centrix data — preprocess_signal_events • railvarr
…
preprocess_track_events() converts raw_centrix$transition into track
entry and exit events.

    See also

    wrangle_centrix() calculate_time_windows() aspect_events track_events

    Examples

data(raw_centrix, asset_map, state_mapping)
raw_centrix
#> # A tibble: 110,339 × 3
#>    asset   dt                  transition
#>    <chr>   <dttm>              <chr>     
#>  1 TA-1 TR 2000-01-01 06:13:48 UP to DN  
#>  2 S1 HHGE 2000-01-01 06:13:49 UP to DN  
#>  3 S1 HGE  2000-01-01 06:13:49 UP to DN  
#>  4 S1 RGE  2000-01-01 06:13:49 DN to UP  
#>  5 TA-1 TR 2000-01-01 06:25:29 DN to UP  
#>  6 TA-1 TR 2000-01-01 06:25:31 UP to DN  
#>  7 TA-1 TR 2000-01-01 06:25:43 DN to UP  
#>  8 S1 HHGE 2000-01-01 06:25:48 DN to UP  
#>  9 S1 HGE  2000-01-01 06:25:48 DN to UP  
#> 10 S1 RGE  2000-01-01 06:25:48 UP to DN  
#> # ℹ 110,329 more rows
aspect_events <- preprocess_signal_events(raw_centrix,
                                          asset_map,
                                          state_mapping)
aspect_events
#> # A tibble: 32,512 × 4
#>    signal dt                  aspect past_aspect
#>    <chr>  <dttm>              <fct>  <fct>      
#>  1 S1     2000-01-01 06:13:49 R      NA         
#>  2 S1     2000-01-01 06:25:48 YY     R          
#>  3 S1     2000-01-01 06:25:48 Y      YY         
#>  4 S1     2000-01-01 06:25:53 R      Y          
#>  5 S1     2000-01-01 06:26:16 YY     R          
#>  6 S1     2000-01-01 06:26:16 Y      YY         
#>  7 S1     2000-01-01 07:44:16 R      Y          
#>  8 S1     2000-01-01 08:06:31 YY     R          
#>  9 S1     2000-01-01 08:06:31 Y      YY         
#> 10 S1     2000-01-01 08:20:08 R      Y          
#> # ℹ 32,502 more rows

#----------------------------------------------------------------------------

data(raw_centrix, asset_map)
raw_centrix
#> # A tibble: 110,339 × 3
#>    asset   dt                  transition
#>    <chr>   <dttm>              <chr>     
#>  1 TA-1 TR 2000-01-01 06:13:48 UP to DN  
#>  2 S1 HHGE 2000-01-01 06:13:49 UP to DN  
#>  3 S1 HGE  2000-01-01 06:13:49 UP to DN  
#>  4 S1 RGE  2000-01-01 06:13:49 DN to UP  
#>  5 TA-1 TR 2000-01-01 06:25:29 DN to UP  
#>  6 TA-1 TR 2000-01-01 06:25:31 UP to DN  
#>  7 TA-1 TR 2000-01-01 06:25:43 DN to UP  
#>  8 S1 HHGE 2000-01-01 06:25:48 DN to UP  
#>  9 S1 HGE  2000-01-01 06:25:48 DN to UP  
#> 10 S1 RGE  2000-01-01 06:25:48 UP to DN  
#> # ℹ 110,329 more rows
track_events <- preprocess_track_events(raw_centrix,
                                        asset_map)
track_events
#> # A tibble: 25,242 × 4
#>    track dt                  occupied event  
#>    <chr> <dttm>              <lgl>    <chr>  
#>  1 TA-1  2000-01-01 06:13:48 TRUE     enters 
#>  2 TA-1  2000-01-01 06:25:29 FALSE    vacates
#>  3 TA-1  2000-01-01 06:25:31 TRUE     enters 
#>  4 TA-1  2000-01-01 06:25:43 FALSE    vacates
#>  5 TA-1  2000-01-01 06:25:52 TRUE     enters 
#>  6 TA-1  2000-01-01 06:25:54 FALSE    vacates
#>  7 TA-1  2000-01-01 06:25:57 TRUE     enters 
#>  8 TA-1  2000-01-01 06:25:59 FALSE    vacates
#>  9 TA-1  2000-01-01 06:26:02 TRUE     enters 
#> 10 TA-1  2000-01-01 06:26:11 FALSE    vacates
#> # ℹ 25,232 more rows
…
