Wrangle Timetable Data — wrangle_timetable • railvarr
…
A subset of the timetable which contains trains that pass through the
specified stations in the given order. Time zone is set to "UTC".

    See also

    filter_relevant_services() find_calling_patterns()
calculate_journey_specifications() match_ids() timetable
timetable_subset

    Examples

data(timetable, stations, stopping_stations)
timetable
#> # A tibble: 8,958 × 11
#>    train_header dt_origin           geo    event     wtt                
#>    <chr>        <dttm>              <chr>  <chr>     <dttm>             
#>  1 168H         2000-01-01 12:05:00 geo1   Originate 2000-01-01 12:20:00
#>  2 168H         2000-01-01 12:05:00 geo18  Arrive    2000-01-01 12:23:00
#>  3 168H         2000-01-01 12:05:00 geo18  Depart    2000-01-01 12:24:00
#>  4 168H         2000-01-01 12:05:00 geo2   Arrive    2000-01-01 12:28:00
#>  5 168H         2000-01-01 12:05:00 geo2   Depart    2000-01-01 12:29:00
#>  6 168H         2000-01-01 12:05:00 geo3   Arrive    2000-01-01 12:35:30
#>  7 168H         2000-01-01 12:05:00 geo3   Depart    2000-01-01 12:36:30
#>  8 168H         2000-01-01 12:05:00 geo104 Arrive    2000-01-01 12:39:00
#>  9 168H         2000-01-01 12:05:00 geo104 Depart    2000-01-01 12:39:30
#> 10 168H         2000-01-01 12:05:00 geo4   Arrive    2000-01-01 12:41:30
#> # ℹ 8,948 more rows
#> # ℹ 6 more variables: t <dttm>, delay <dbl>, allow <dbl>, allow_perf <dbl>,
#> #   allow_path <dbl>, allow_eng <dbl>
timetable_subset <- wrangle_timetable(timetable, stations, stopping_stations)
timetable_subset
#> # A tibble: 792 × 12
#>    train_header dt_origin           geo    event  wtt                
#>    <chr>        <dttm>              <chr>  <chr>  <dttm>             
#>  1 108H         2000-01-01 12:55:00 geo5   Arrive 2000-01-01 13:34:00
#>  2 108H         2000-01-01 12:55:00 geo5   Depart 2000-01-01 13:35:30
#>  3 108H         2000-01-01 12:55:00 geo6   Pass   2000-01-01 13:37:30
#>  4 108H         2000-01-01 12:55:00 geo110 Arrive 2000-01-01 13:39:00
#>  5 108H         2000-01-01 12:55:00 geo110 Depart 2000-01-01 13:39:30
#>  6 108H         2000-01-01 12:55:00 geo111 Arrive 2000-01-01 13:42:00
#>  7 108H         2000-01-01 12:55:00 geo111 Depart 2000-01-01 13:42:30
#>  8 108H         2000-01-01 12:55:00 geo112 Arrive 2000-01-01 13:44:30
#>  9 108H         2000-01-01 12:55:00 geo112 Depart 2000-01-01 13:45:00
#> 10 108H         2000-01-01 12:55:00 geo7   Arrive 2000-01-01 13:48:00
#> # ℹ 782 more rows
#> # ℹ 7 more variables: t <dttm>, delay <dbl>, allow <dbl>, allow_perf <dbl>,
#> #   allow_path <dbl>, allow_eng <dbl>, group <chr>
…
