railvarr • railvarr
…
Note that we don’t need to include berth C in the map unless we
wanted access to the time at which the train vacated that berth. To
process the 7 observations derived from the example, this map is
sufficient.

This representation of the network map is limited, as it can only
handle linear sections of track, travelling in a single direction. More
complex track layouts such as junctions are not supported.

With a raw_centrix data frame along with the
asset_map, you can process the data using:

data(raw_centrix, asset_map)
raw_centrix
#> # A tibble: 110,339 × 3
#>    asset   dt                  transition
#>    <chr>   <dttm>              <chr>     
#>  1 TA-1 TR 2000-01-01 06:13:48 UP to DN  
#>  2 S1 HHGE 2000-01-01 06:13:49 UP to DN  
#>  3 S1 HGE  2000-01-01 06:13:49 UP to DN  
#>  4 S1 RGE  2000-01-01 06:13:49 DN to UP  
#>  5 TA-1 TR 2000-01-01 06:25:29 DN to UP  
#>  6 TA-1 TR 2000-01-01 06:25:31 UP to DN  
#>  7 TA-1 TR 2000-01-01 06:25:43 DN to UP  
#>  8 S1 HHGE 2000-01-01 06:25:48 DN to UP  
#>  9 S1 HGE  2000-01-01 06:25:48 DN to UP  
#> 10 S1 RGE  2000-01-01 06:25:48 UP to DN  
#> # ℹ 110,329 more rows
…
#>  5 S3     C     TC-1  enters 
#>  6 S3     C     TC-2  vacates
#>  7 S4     D     TD    enters 
#>  8 S4     D     TD    vacates
#>  9 S5     E     TE    enters 
#> 10 S5     E     TE    vacates
#> 11 S6     F     TF-1  enters 
#> 12 S6     F     TF-2  vacates
#> 13 S7     G     TG-1  enters 
#> 14 S7     G     TG-2  vacates
#> 15 S8     H     TH    enters 
#> 16 S8     H     TH    vacates
#> 17 S9     I     TI    enters
railvarr::wrangle_centrix(raw_centrix, asset_map)
#> # A tibble: 6,952 × 15
#>    signal berth train_id aspect t_enters            t_red_on           
#>    <chr>  <chr>    <int> <fct>  <dttm>              <dttm>             
#>  1 S1     A            1 G      2000-01-01 13:07:11 2000-01-01 13:07:12
#>  2 S2     B            1 G      2000-01-01 13:09:18 2000-01-01 13:09:19
#>  3 S3     C            1 G      2000-01-01 13:09:58 2000-01-01 13:09:59
#>  4 S4     D            1 G      2000-01-01 13:10:41 2000-01-01 13:10:42
#>  5 S5     E            1 G      2000-01-01 13:12:39 2000-01-01 13:12:39
#>  6 S6     F            1 G      2000-01-01 13:13:18 2000-01-01 13:13:19
#>  7 S7     G            1 G      2000-01-01 13:15:35 2000-01-01 13:15:35
#>  8 S8     H            1 G      2000-01-01 13:16:19 2000-01-01 13:16:20
#>  9 S1     A            2 G      2000-01-01 13:11:58 2000-01-01 13:11:59
#> 10 S2     B            2 YY     2000-01-01 13:12:43 2000-01-01 13:12:43
#> # ℹ 6,942 more rows
#> # ℹ 9 more variables: t_enters_next <dttm>, t_vacates <dttm>, t_red_off <dttm>,
#> #   TSAR <dbl>, T_onset <dbl>, T_clear <dbl>, T_offset <dbl>, T_travel <dbl>,
#> #   T_coach <dbl>
…
# Load example data from railvarr
data(timetable, stations, stopping_stations)
# Raw timetable: note the number of observations and that none of the TIPLOCs 
# (`geo`) appear in the list of stations
timetable
#> # A tibble: 8,958 × 11
#>    train_header dt_origin           geo    event     wtt                
#>    <chr>        <dttm>              <chr>  <chr>     <dttm>             
#>  1 168H         2000-01-01 12:05:00 geo1   Originate 2000-01-01 12:20:00
#>  2 168H         2000-01-01 12:05:00 geo18  Arrive    2000-01-01 12:23:00
#>  3 168H         2000-01-01 12:05:00 geo18  Depart    2000-01-01 12:24:00
#>  4 168H         2000-01-01 12:05:00 geo2   Arrive    2000-01-01 12:28:00
#>  5 168H         2000-01-01 12:05:00 geo2   Depart    2000-01-01 12:29:00
#>  6 168H         2000-01-01 12:05:00 geo3   Arrive    2000-01-01 12:35:30
#>  7 168H         2000-01-01 12:05:00 geo3   Depart    2000-01-01 12:36:30
#>  8 168H         2000-01-01 12:05:00 geo104 Arrive    2000-01-01 12:39:00
#>  9 168H         2000-01-01 12:05:00 geo104 Depart    2000-01-01 12:39:30
#> 10 168H         2000-01-01 12:05:00 geo4   Arrive    2000-01-01 12:41:30
#> # ℹ 8,948 more rows
#> # ℹ 6 more variables: t <dttm>, delay <dbl>, allow <dbl>, allow_perf <dbl>,
#> #   allow_path <dbl>, allow_eng <dbl>
…
#> [1] "geo7" "geo8"
# List of stations in the track section at which trains stop
stopping_stations
#> [[1]]
#> [1] "geo110"
#> 
#> [[2]]
#> [1] "geo111"
#> 
#> [[3]]
#> [1] "geo112"
# Processed timetable: not how few observations persist, fewer than 10%; note 
# also that all the TIPLOCs apear in stations
railvarr::wrangle_timetable(timetable, stations, stopping_stations)
#> # A tibble: 792 × 12
#>    train_header dt_origin           geo    event  wtt                
#>    <chr>        <dttm>              <chr>  <chr>  <dttm>             
#>  1 108H         2000-01-01 12:55:00 geo5   Arrive 2000-01-01 13:34:00
#>  2 108H         2000-01-01 12:55:00 geo5   Depart 2000-01-01 13:35:30
#>  3 108H         2000-01-01 12:55:00 geo6   Pass   2000-01-01 13:37:30
#>  4 108H         2000-01-01 12:55:00 geo110 Arrive 2000-01-01 13:39:00
#>  5 108H         2000-01-01 12:55:00 geo110 Depart 2000-01-01 13:39:30
#>  6 108H         2000-01-01 12:55:00 geo111 Arrive 2000-01-01 13:42:00
#>  7 108H         2000-01-01 12:55:00 geo111 Depart 2000-01-01 13:42:30
#>  8 108H         2000-01-01 12:55:00 geo112 Arrive 2000-01-01 13:44:30
#>  9 108H         2000-01-01 12:55:00 geo112 Depart 2000-01-01 13:45:00
#> 10 108H         2000-01-01 12:55:00 geo7   Arrive 2000-01-01 13:48:00
#> # ℹ 782 more rows
#> # ℹ 7 more variables: t <dttm>, delay <dbl>, allow <dbl>, allow_perf <dbl>,
#> #   allow_path <dbl>, allow_eng <dbl>, group <chr>
…
